<?xml version="1.0" standalone="no"?>
<!DOCTYPE svg PUBLIC "-//W3C//DTD SVG 20010904//EN"
 "http://www.w3.org/TR/2001/REC-SVG-20010904/DTD/svg10.dtd">
<svg version="1.0" xmlns="http://www.w3.org/2000/svg"
 width="700.000000pt" height="700.000000pt" viewBox="0 0 700.000000 700.000000"
 preserveAspectRatio="xMidYMid meet">
<metadata>
Created by potrace 1.11, written by Peter Selinger 2001-2013
</metadata>
<g transform="translate(0.000000,700.000000) scale(0.100000,-0.100000)"
fill="#000000" stroke="none">
<path d="M2159 6065 c-33 -18 -41 -37 -98 -239 -142 -499 -240 -958 -282
-1312 l-12 -102 -61 -40 c-423 -278 -712 -881 -733 -1530 -7 -191 5 -328 41
-473 l22 -89 -30 -5 c-17 -2 -147 -15 -289 -29 -142 -13 -261 -27 -264 -30
-16 -15 17 -15 198 4 107 11 238 23 292 28 109 9 103 12 127 -63 15 -49 84
-188 111 -227 16 -21 17 -29 7 -32 -7 -3 -71 -21 -142 -41 -200 -56 -496 -155
-496 -165 0 -14 -6 -15 177 45 91 31 237 76 325 101 l160 45 58 -64 c65 -70
166 -156 249 -211 35 -22 49 -37 40 -40 -137 -48 -489 -179 -569 -213 -127
-54 -347 -167 -387 -198 -43 -35 -23 -38 31 -4 75 47 289 152 416 204 142 59
518 195 537 195 8 0 67 -29 132 -65 396 -219 853 -355 1441 -429 367 -47 964
-71 1520 -63 294 4 347 7 433 26 202 44 344 120 488 258 l55 54 95 -34 c222
-81 466 -192 600 -273 60 -36 69 -39 69 -25 0 28 -336 193 -585 288 -85 32
-155 61 -155 65 0 4 16 28 35 53 48 63 102 178 121 257 l16 66 52 -15 c130
-37 320 -96 415 -128 105 -35 144 -43 126 -26 -11 10 -404 139 -508 166 -38
10 -71 24 -74 31 -4 11 22 197 44 308 l5 29 102 -7 c55 -3 186 -15 291 -26
213 -22 253 -24 240 -11 -9 8 -317 41 -530 57 -44 3 -85 7 -91 9 -8 2 -7 26 2
83 21 133 36 391 30 502 -30 490 -165 877 -422 1206 l-73 94 10 97 c6 54 13
242 16 418 10 617 -51 1005 -208 1318 -93 185 -163 210 -271 99 -89 -92 -129
-182 -188 -424 -21 -90 -75 -282 -118 -428 -78 -261 -124 -439 -138 -532 -3
-27 -10 -48 -14 -48 -4 0 -50 9 -101 19 -122 25 -284 46 -544 72 -245 24 -852
37 -1055 21 -69 -5 -127 -8 -128 -6 -9 7 -47 169 -98 419 -98 478 -148 652
-249 862 -64 134 -91 163 -149 163 -23 -1 -53 -7 -67 -15z m2971 -432 c88
-235 130 -554 130 -988 0 -144 -3 -296 -6 -337 l-7 -74 -71 47 c-83 55 -221
125 -324 164 l-73 27 6 47 c15 106 61 288 121 481 35 113 76 255 90 315 69
294 92 375 108 375 2 0 14 -26 26 -57z m-2856 -80 c38 -116 60 -211 131 -560
35 -175 69 -333 74 -350 9 -32 9 -33 -19 -33 -45 0 -308 -47 -383 -69 l-68
-20 6 47 c19 137 68 406 100 547 36 163 126 515 131 515 1 0 14 -35 28 -77z
m1386 -1144 c453 -27 899 -103 1116 -189 255 -102 469 -269 627 -490 79 -112
183 -317 227 -449 98 -291 124 -642 74 -993 l-18 -128 -95 0 c-53 1 -222 5
-376 10 -154 5 -281 7 -284 4 -20 -20 50 -26 380 -36 200 -5 365 -11 366 -12
5 -4 -40 -271 -46 -278 -4 -4 -54 1 -111 13 -159 30 -350 57 -494 69 -158 12
-146 13 -146 -3 0 -10 48 -18 183 -30 164 -15 369 -46 513 -77 l52 -11 -14
-61 c-19 -79 -67 -169 -125 -232 l-47 -51 -53 19 c-130 45 -344 133 -458 187
-121 58 -151 68 -151 50 0 -19 305 -155 594 -263 l38 -15 -38 -29 c-88 -69
-218 -126 -342 -151 -140 -28 -1175 -17 -1577 18 -503 43 -942 136 -1260 266
-143 58 -305 134 -305 143 0 3 26 17 58 30 122 49 275 131 265 141 -7 7 -43
-6 -109 -39 -55 -27 -136 -64 -181 -82 l-82 -33 -104 62 c-56 34 -138 92 -182
129 l-79 66 30 8 c83 21 411 62 563 71 68 3 66 27 -2 27 -103 0 -508 -51 -592
-75 -15 -5 -30 6 -62 49 -45 57 -123 193 -123 214 0 9 49 12 213 13 258 1 554
12 563 22 19 19 -22 23 -151 16 -77 -4 -253 -9 -392 -11 l-251 -4 -21 71 c-72
242 -79 528 -19 805 70 330 240 670 433 866 237 241 534 337 1150 374 312 18
533 18 845 -1z"/>
<path d="M1784 3186 c-50 -31 -78 -87 -76 -156 2 -88 56 -153 137 -165 116
-18 202 65 193 187 -7 96 -61 149 -155 155 -48 3 -65 0 -99 -21z"/>
<path d="M4940 3031 c-19 -10 -45 -36 -58 -57 -30 -51 -28 -158 4 -201 50 -67
154 -88 224 -47 108 63 105 256 -4 308 -46 22 -123 21 -166 -3z"/>
<path d="M3150 1920 c-65 -65 43 -245 186 -312 160 -75 310 -52 445 68 112
100 131 146 83 203 -42 50 -73 43 -152 -35 -37 -36 -85 -75 -107 -87 -50 -26
-146 -29 -190 -5 -46 25 -96 79 -117 125 -10 24 -27 47 -38 53 -32 17 -88 12
-110 -10z"/>
</g>
</svg>
